{
	"id": "7ce546b6-1e5e-2dff-44db-cf98ac8ffef4",
	"name": "woodoo",
	"description": "",
	"order": [
		"2b8c07fa-fc94-9d86-0ce2-4d4b9b6581dc",
		"2dafc25f-a135-6610-945d-736c4c7d9c40",
		"d46df63c-74e4-a7e0-df4f-187b217e115b",
		"82fbcb27-63a7-c584-855b-f62da8d8c8ec",
		"a884de10-5e9a-cfc6-aa65-d91f50a7ca7c",
		"9c03c8d7-71a3-1019-5621-13db3067cab4"
	],
	"folders": [],
	"timestamp": 1484652194460,
	"owner": "1115626",
	"public": false,
	"requests": [
		{
			"id": "2b8c07fa-fc94-9d86-0ce2-4d4b9b6581dc",
			"headers": "",
			"url": "http://52.2.132.71:8080/woodoo/demo",
			"preRequestScript": null,
			"pathVariables": {},
			"method": "GET",
			"data": null,
			"dataMode": "params",
			"version": 2,
			"tests": null,
			"currentHelper": "normal",
			"helperAttributes": {},
			"time": 1484732031475,
			"name": "Demo",
			"description": "\t",
			"collectionId": "7ce546b6-1e5e-2dff-44db-cf98ac8ffef4",
			"responses": []
		},
		{
			"id": "2dafc25f-a135-6610-945d-736c4c7d9c40",
			"headers": "",
			"url": "http://52.2.132.71:8080/woodoo/user/signup",
			"preRequestScript": null,
			"pathVariables": {},
			"method": "POST",
			"data": [
				{
					"key": "user_id",
					"value": "",
					"type": "text",
					"enabled": true
				},
				{
					"key": "first_name",
					"value": "",
					"type": "text",
					"enabled": true
				},
				{
					"key": "last_name",
					"value": "",
					"type": "text",
					"enabled": true
				},
				{
					"key": "dob",
					"value": "",
					"type": "text",
					"enabled": true
				},
				{
					"key": "gender",
					"value": "",
					"type": "text",
					"enabled": true
				},
				{
					"key": "password",
					"value": "",
					"type": "text",
					"enabled": true
				},
				{
					"key": "phone_value",
					"value": "",
					"type": "text",
					"enabled": true
				},
				{
					"key": "state",
					"value": "",
					"type": "text",
					"enabled": true
				},
				{
					"key": "city",
					"value": "",
					"type": "text",
					"enabled": true
				},
				{
					"key": "pin_code",
					"value": "",
					"type": "text",
					"enabled": true
				},
				{
					"key": "address_one",
					"value": "",
					"type": "text",
					"enabled": true
				},
				{
					"key": "address_two",
					"value": "",
					"type": "text",
					"enabled": true
				}
			],
			"dataMode": "params",
			"version": 2,
			"tests": null,
			"currentHelper": "normal",
			"helperAttributes": {},
			"time": 1484732035435,
			"name": "Profile update",
			"description": "",
			"collectionId": "7ce546b6-1e5e-2dff-44db-cf98ac8ffef4",
			"responses": []
		},
		{
			"id": "82fbcb27-63a7-c584-855b-f62da8d8c8ec",
			"headers": "",
			"url": "http://52.2.132.71:8080/woodoo/user/login/",
			"preRequestScript": null,
			"pathVariables": {},
			"method": "POST",
			"data": [
				{
					"key": "login_type",
					"value": "FACEBOOK",
					"type": "text",
					"enabled": true
				},
				{
					"key": "email",
					"value": "sumit@gmail.com",
					"type": "text",
					"enabled": true
				},
				{
					"key": "facebook_id",
					"value": "123",
					"type": "text",
					"enabled": true
				},
				{
					"key": "password",
					"value": "",
					"type": "text",
					"enabled": true
				}
			],
			"dataMode": "params",
			"version": 2,
			"tests": null,
			"currentHelper": "normal",
			"helperAttributes": {},
			"time": 1484732042347,
			"name": "User Login",
			"description": "",
			"collectionId": "7ce546b6-1e5e-2dff-44db-cf98ac8ffef4",
			"responses": []
		},
		{
			"id": "9c03c8d7-71a3-1019-5621-13db3067cab4",
			"headers": "",
			"url": "http://tools.vcommission.com/api/coupons.php?apikey=6611b47aa3fcaded85859c6fa4cab0038d7188f089149fd27bab5fededab38fa",
			"pathVariables": {},
			"preRequestScript": null,
			"method": "GET",
			"collectionId": "7ce546b6-1e5e-2dff-44db-cf98ac8ffef4",
			"data": null,
			"dataMode": "params",
			"name": "Coupon key",
			"description": "",
			"descriptionFormat": "html",
			"time": 1484733174573,
			"version": 2,
			"responses": [],
			"tests": null,
			"currentHelper": "normal",
			"helperAttributes": {}
		},
		{
			"id": "a884de10-5e9a-cfc6-aa65-d91f50a7ca7c",
			"headers": "",
			"url": "http://52.2.132.71:8080/woodoo/otp/sender",
			"pathVariables": {},
			"preRequestScript": null,
			"method": "POST",
			"collectionId": "7ce546b6-1e5e-2dff-44db-cf98ac8ffef4",
			"data": [
				{
					"key": "type",
					"value": "EMAIL",
					"type": "text",
					"enabled": true
				},
				{
					"key": "email",
					"value": "sumit.verma@codeyeti.in",
					"type": "text",
					"enabled": true
				},
				{
					"key": "mobile_no",
					"value": "",
					"type": "text",
					"enabled": true
				}
			],
			"dataMode": "params",
			"name": "Otp sender",
			"description": "",
			"descriptionFormat": "html",
			"time": 1484732401692,
			"version": 2,
			"responses": [],
			"tests": null,
			"currentHelper": "normal",
			"helperAttributes": {}
		},
		{
			"id": "d46df63c-74e4-a7e0-df4f-187b217e115b",
			"headers": "",
			"url": "http://52.2.132.71:8080/woodoo/user/signup",
			"preRequestScript": null,
			"pathVariables": {},
			"method": "POST",
			"data": [
				{
					"key": "first_name",
					"value": "Sumit",
					"type": "text",
					"enabled": true
				},
				{
					"key": "last_name",
					"value": "Verma",
					"type": "text",
					"enabled": true
				},
				{
					"key": "dob",
					"value": "10-12-2016",
					"type": "text",
					"enabled": true
				},
				{
					"key": "email",
					"value": "sum1it@gmail.com",
					"type": "text",
					"enabled": true
				},
				{
					"key": "gender",
					"value": "male",
					"type": "text",
					"enabled": true
				},
				{
					"key": "mobile_no",
					"value": "1234567891",
					"type": "text",
					"enabled": true
				},
				{
					"key": "password",
					"value": "qweqweqwe",
					"type": "text",
					"enabled": true
				},
				{
					"key": "phone_value",
					"value": "",
					"type": "text",
					"enabled": true
				},
				{
					"key": "state",
					"value": "Delhi",
					"type": "text",
					"enabled": true
				},
				{
					"key": "city",
					"value": "New Delhi",
					"type": "text",
					"enabled": true
				},
				{
					"key": "pin_code",
					"value": "214514",
					"type": "text",
					"enabled": true
				},
				{
					"key": "address_one",
					"value": "Addresss oneeeee",
					"type": "text",
					"enabled": true
				},
				{
					"key": "address_two",
					"value": "Addessss towwwwwwwww",
					"type": "text",
					"enabled": true
				},
				{
					"key": "membership_plan",
					"value": "SILVER",
					"type": "text",
					"enabled": true
				},
				{
					"key": "facebook_id",
					"value": "",
					"type": "text",
					"enabled": true
				},
				{
					"key": "used_referral_code",
					"value": "",
					"type": "text",
					"enabled": true
				}
			],
			"dataMode": "params",
			"version": 2,
			"tests": null,
			"currentHelper": "normal",
			"helperAttributes": {},
			"time": 1484732038931,
			"name": "User Sign Up",
			"description": "",
			"collectionId": "7ce546b6-1e5e-2dff-44db-cf98ac8ffef4",
			"responses": []
		}
	]
}